{
  "project_info": {
    "project_number": "42012639205",
    "firebase_url": "https://landingpage-74ecc.firebaseio.com",
    "project_id": "landingpage-74ecc",
    "storage_bucket": "landingpage-74ecc.appspot.com"
  },
  "client": [
    {
      "client_info": {
        "mobilesdk_app_id": "1:42012639205:android:3844ec3e46b95fffdfb90c",
        "android_client_info": {
          "package_name": "com.example.landingpage"
        }
      },
      "oauth_client": [
        {
          "client_id": "42012639205-3802qdpusit0baeigh1l3btr963e8pd8.apps.googleusercontent.com",
          "client_type": 1,
          "android_info": {
            "package_name": "com.example.landingpage",
            "certificate_hash": "e759e2b829341b0ed9ecab4f152bbd1331f0b672"
          }
        },
        {
          "client_id": "42012639205-vv7d9ervon6jh4k43au12uf7o1mfl48g.apps.googleusercontent.com",
          "client_type": 3
        }
      ],
      "api_key": [
        {
          "current_key": "AIzaSyCOO0DMRvsx6UH-j7ZCFK-PL-NTxsxdA00"
        }
      ],
      "services": {
        "appinvite_service": {
          "other_platform_oauth_client": [
            {
              "client_id": "42012639205-vv7d9ervon6jh4k43au12uf7o1mfl48g.apps.googleusercontent.com",
              "client_type": 3
            }
          ]
        }
      }
    }
  ],
  "configuration_version": "1"
}